id,name,model_id:id,group_id:id,perm_read,perm_write,perm_create,perm_unlink
access_academy_course_deny,access.academy.course.deny,academy.model_academy_course,academy.academy_group_session_read,0,0,0,0
access_academy_session_access,access.academy.session.access,academy.model_academy_session,academy.academy_group_session_read,1,0,0,0

access_academy_course_manager,access.academy.course.manager,academy.model_academy_course,academy.academy_group_manager,1,1,1,1
access_academy_session_manager,access.academy.session.manager,academy.model_academy_session,academy.academy_group_manager,1,1,1,1

access_academy_course_all_users,access.academy.course.all.users,academy.model_academy_course,academy_group_all_users,1,0,0,0
access_academy_session_all_users,access.academy.session.all.users,academy.model_academy_session,academy_group_all_users,1,0,0,0
